<?xml version="1.0" encoding="UTF-8" standalone="no"?>
<svg width="75px" height="41px" viewBox="0 0 75 41" version="1.1" xmlns="http://www.w3.org/2000/svg" xmlns:xlink="http://www.w3.org/1999/xlink">
    <!-- Generator: Sketch 3.8.3 (29802) - http://www.bohemiancoding.com/sketch -->
    <title>wyze</title>
    <desc>Created with Sketch.</desc>
    <defs></defs>
    <g id="Page-1" stroke="none" stroke-width="1" fill="none" fill-rule="evenodd">
        <g id="opt2-loading" transform="translate(-148.000000, -358.000000)" fill="#FFFFFF">
            <path d="M175.214609,372.647758 C171.691674,378.780275 167.777302,383.086084 165.493919,383.020844 C163.601972,382.955605 163.406253,380.737461 165.167721,377.018807 C166.798709,373.561112 170.060686,368.602907 171.495956,365.667128 C173.061705,362.405151 172.539788,359.534612 171.626435,358.3603 C171.039279,357.773144 170.647842,357.903623 169.995446,358.751737 C167.842542,361.557037 165.950595,366.058565 161.775265,372.712998 C158.25233,378.388837 155.838467,382.759886 153.228886,382.825126 C151.728377,382.890365 151.663137,380.606982 152.967928,377.410244 C154.272718,374.278747 155.968946,371.212489 158.31757,367.493835 C160.731432,363.644703 161.05763,360.839402 159.491881,358.686498 C159.100444,358.099342 158.448049,358.034102 157.926132,358.751737 C153.555084,364.688535 150.358346,371.08201 148.857837,375.387819 C147.161609,380.215544 147.879244,384.456114 151.924095,384.717072 C155.055593,384.912791 157.795653,382.30321 159.883319,379.628389 C159.6876,382.433689 161.253349,384.97803 164.058649,385.04327 C168.429698,385.173749 173.061705,380.150305 177.497993,372.712998 C181.542844,365.862847 182.651916,362.927068 183.173833,360.317486 C183.434791,358.947456 183.043353,357.968863 182.19524,358.099342 C180.825209,358.3603 176.323681,362.666109 175.214609,372.647758 L175.214609,372.647758 Z M195.949908,380.044291 C196.643078,378.984148 196.765402,378.04633 196.683853,377.679357 C196.602304,377.27161 196.235331,377.312385 196.031458,377.597808 C194.400469,379.840417 191.994761,382.164576 188.814334,383.877113 C190.526872,379.921967 193.014129,375.029001 194.23737,372.664068 C195.297513,370.584558 194.971315,368.831246 194.400469,368.097301 C194.033497,367.771103 193.748074,367.852653 193.381101,368.382724 C191.953987,370.462234 190.200674,374.131958 188.447362,377.149286 C186.367851,380.696686 184.329116,383.306267 182.738902,383.183943 C181.801084,383.102394 181.719535,381.675279 182.535029,379.677318 C183.309748,377.760907 184.206792,376.089144 185.674681,373.724211 C187.183346,371.318503 187.427994,369.605965 186.449401,368.301174 C186.163978,367.893427 185.756231,367.852653 185.430033,368.301174 C182.779677,371.970898 180.781716,376.007594 179.884673,378.617176 C178.946854,381.308307 179.028404,384.28486 181.964183,384.529509 C183.595171,384.651833 185.14461,383.59169 186.408626,382.2869 C185.960104,383.265493 185.552357,384.28486 185.14461,385.222679 C181.107914,386.812892 177.642064,389.259375 176.418822,392.929099 C175.603328,395.334807 176.418822,396.761922 177.234317,397.985163 C178.009036,399.126855 178.783755,399.126855 179.558475,398.841432 C182.942776,397.536641 185.83778,390.971913 188.121164,385.508102 C191.505465,384.121762 194.359694,382.572323 195.949908,380.044291 L195.949908,380.044291 Z M184.45144,386.935217 C181.923408,392.929099 178.579882,397.373542 178.049811,396.598823 C177.315866,395.579455 179.150728,389.99332 184.45144,386.935217 L184.45144,386.935217 Z M202.365129,383.877113 C198.899279,385.304228 195.514978,387.302189 194.006314,390.808814 C193.027721,393.092198 194.087863,394.519312 194.944132,395.579455 C195.9635,396.843471 196.819769,396.598823 197.635263,396.150301 C200.20407,394.723186 204.444639,388.566205 204.444639,384.203311 C206.157177,383.469366 208.481336,382.083026 209.419154,380.329714 C209.99,379.269571 210.153099,378.127879 209.99,377.801682 C209.826901,377.434709 209.419154,377.475484 209.256055,377.801682 C207.951264,380.288939 206.238727,382.083026 204.36309,383.061619 C204.199991,382.2869 203.873793,381.59373 203.302947,381.063658 C202.650552,380.452038 201.712734,380.207389 200.734141,380.248164 C203.384497,378.576401 205.708655,376.57844 206.768798,374.784353 C208.032814,372.623294 207.91049,370.747657 206.931897,369.361317 C205.912529,367.893427 204.730062,367.648779 202.8952,367.893427 C200.938014,368.138075 198.613856,369.279767 196.982867,370.869981 C195.474203,372.337871 194.984907,374.213507 195.311104,375.27365 C195.392654,375.599847 195.678077,375.722171 195.922725,375.395974 C199.062378,371.481602 204.607738,368.586597 205.708655,369.972937 C206.809572,371.359278 204.199991,375.355199 198.083785,378.861824 C196.65667,379.677318 195.718851,380.941334 196.330472,382.694647 C196.452796,383.020844 196.738219,382.939295 197.023642,382.735421 C199.062378,381.308307 201.549635,381.063658 202.120481,381.797603 C202.487453,382.2869 202.528228,383.020844 202.365129,383.877113 L202.365129,383.877113 Z M201.998157,385.222679 C200.611817,389.340924 196.371247,395.049384 195.637302,394.193115 C194.862583,393.255296 196.57512,388.280782 201.998157,385.222679 L201.998157,385.222679 Z M211.471481,377.026962 C214.325711,379.351121 217.057616,378.290978 219.055577,375.844496 C220.768115,373.764985 221.094312,371.277728 220.360368,370.299135 C219.707972,369.402091 218.974027,368.790471 217.95466,368.17885 C215.915924,366.996384 211.756904,369.116669 209.106548,374.376606 C206.456192,379.636544 208.250279,384.733382 213.428667,384.651833 C216.56832,384.611058 219.707972,382.735421 221.42051,380.248164 C222.154455,379.188022 222.276779,378.04633 222.11368,377.720132 C221.950581,377.35316 221.624384,377.35316 221.42051,377.679357 C219.667197,380.370488 216.690644,383.632465 213.306343,383.469366 C211.145283,383.347042 210.16669,380.778235 211.471481,377.026962 L211.471481,377.026962 Z M211.838453,376.129919 C211.920003,375.926045 212.042327,375.681397 212.164651,375.436748 C214.081062,371.563151 217.465363,369.116669 218.321632,369.809839 C218.892478,370.25836 217.995434,372.378645 216.690644,374.091183 C215.508177,375.640622 213.836414,377.393935 211.838453,376.129919 L211.838453,376.129919 Z" id="wyze"></path>
        </g>
    </g>
</svg>