<?xml version="1.0" encoding="utf-8"?>
<!-- Generator: Avocode 2.6.0 - http://avocode.com -->
<svg height="30" width="23" xmlns:xlink="http://www.w3.org/1999/xlink" xmlns="http://www.w3.org/2000/svg" viewBox="0 0 23 30">
    <path fill="#000000" fill-rule="evenodd" d="M 22.99 5.94 C 22.97 5.7 22.88 5.47 22.71 5.29 L 17.71 0.29 C 17.52 0.1 17.26 0 17 0 C 17 0 17 0 17 0 L 0.5 0 C 0.22 0 0 0.22 0 0.5 L 0 21.5 L 0 29.5 C 0 29.78 0.22 30 0.5 30 L 22.5 30 C 22.78 30 23 29.78 23 29.5 L 23 21.5 L 23 6 C 23 5.98 22.99 5.96 22.99 5.94 L 22.99 5.94 Z M 22 21 L 1 21 L 1 1 L 16 1 L 16 6 C 16 6.55 16.45 7 17 7 L 22 7 L 22 21 L 22 21 Z M 22 29 L 1 29 L 1 22 L 22 22 L 22 29 L 22 29 Z M 17 6 L 17 1 L 22 6 L 17 6 L 17 6 Z M 17 6" />
    <path fill="#333333" fill-rule="evenodd" d="M 1 29 L 22 29 L 22 22 L 1 22 L 1 29 L 1 29 Z M 17.56 23.98 L 20.24 23.98 L 20.24 24.83 L 19.85 24.83 L 19.85 24.34 L 19.12 24.34 L 19.12 26.76 L 19.51 26.76 L 19.51 27.1 L 18.28 27.1 L 18.28 26.76 L 18.68 26.76 L 18.68 24.34 L 17.94 24.34 L 17.94 24.83 L 17.56 24.83 L 17.56 23.98 L 17.56 23.98 Z M 12.49 26.76 L 12.88 26.76 L 12.88 24.32 L 12.49 24.32 L 12.49 23.98 L 13.32 23.98 L 14.85 26.22 C 14.91 26.31 14.96 26.45 14.96 26.45 L 14.97 26.45 C 14.97 26.45 14.95 26.29 14.95 26.19 L 14.95 24.32 L 14.55 24.32 L 14.55 23.98 L 15.79 23.98 L 15.79 24.32 L 15.39 24.32 L 15.39 27.1 L 14.96 27.1 L 13.42 24.87 C 13.37 24.78 13.32 24.64 13.32 24.64 L 13.31 24.64 C 13.31 24.64 13.33 24.79 13.32 24.89 L 13.32 26.76 L 13.73 26.76 L 13.73 27.1 L 12.49 27.1 L 12.49 26.76 L 12.49 26.76 Z M 9 23.93 C 9.91 23.93 10.61 24.62 10.61 25.52 C 10.61 26.44 9.91 27.16 9 27.16 C 8.1 27.16 7.4 26.44 7.4 25.52 C 7.4 24.62 8.1 23.93 9 23.93 L 9 23.93 Z M 3.4 26.76 L 3.79 26.76 L 3.79 24.32 L 3.4 24.32 L 3.4 23.98 L 5.57 23.98 L 5.57 24.72 L 5.18 24.72 L 5.18 24.36 L 4.24 24.36 L 4.24 25.4 L 5.32 25.4 L 5.32 25.76 L 4.24 25.76 L 4.24 26.76 L 4.66 26.76 L 4.66 27.1 L 3.4 27.1 L 3.4 26.76 L 3.4 26.76 Z M 3.4 26.76" />
    <path fill="#000000" fill-rule="evenodd" d="M 8.66 7.78 L 7.08 7.78 L 3.92 16.57 L 2.97 16.57 L 2.97 17.67 L 6.4 17.67 L 6.4 16.57 L 5.34 16.57 L 6.11 14.38 L 9.61 14.38 L 10.38 16.57 L 9.33 16.57 L 9.33 17.67 L 12.76 17.67 L 12.76 16.57 L 11.81 16.57 L 8.66 7.78 L 8.66 7.78 Z M 6.46 13.25 L 7.68 9.82 C 7.8 9.42 7.85 9.07 7.85 9.07 L 7.89 9.07 C 7.89 9.07 7.92 9.42 8.06 9.82 L 9.26 13.25 L 6.46 13.25 L 6.46 13.25 Z M 6.46 13.25" />
</svg>