<?xml version="1.0" encoding="utf-8"?>
<!-- Generator: Avocode 2.6.0 - http://avocode.com -->
<svg height="21" width="13" xmlns:xlink="http://www.w3.org/1999/xlink" xmlns="http://www.w3.org/2000/svg" viewBox="0 0 13 21">
    <path fill="#ffffff" fill-rule="evenodd" d="M 0 10.5 L 10.5 0 L 12.5 2 L 4 10.5 L 12.5 19 L 10.5 21 L 0 10.5 Z M 0 10.5" />
</svg>