<?xml version="1.0" encoding="utf-8"?>
<!-- Generator: Avocode 2.6.0 - http://avocode.com -->
<svg height="30" width="26" xmlns:xlink="http://www.w3.org/1999/xlink" xmlns="http://www.w3.org/2000/svg" viewBox="0 0 26 30">
    <path fill="#ffffff" fill-rule="evenodd" d="M 19 6 L 19 1 L 4 1 L 4 5 L 9.5 5 C 9.78 5 10 5.22 10 5.5 L 10 14.5 C 10 14.78 9.78 15 9.5 15 L 4 15 L 4 29 L 25 29 L 25 7 L 20 7 C 19.45 7 19 6.55 19 6 L 19 6 Z M 10 27 L 6 27 L 6 25 L 10 25 L 10 27 L 10 27 Z M 10 23 L 6 23 L 6 21 L 10 21 L 10 23 L 10 23 Z M 10 19 L 6 19 L 6 17 L 10 17 L 10 19 L 10 19 Z M 17 27 L 12 27 L 12 25 L 17 25 L 17 27 L 17 27 Z M 17 23 L 12 23 L 12 21 L 17 21 L 17 23 L 17 23 Z M 17 19 L 12 19 L 12 17 L 17 17 L 17 19 L 17 19 Z M 17 15 L 12 15 L 12 13 L 17 13 L 17 15 L 17 15 Z M 17 11 L 12 11 L 12 9 L 17 9 L 17 11 L 17 11 Z M 23 27 L 19 27 L 19 25 L 23 25 L 23 27 L 23 27 Z M 23 23 L 19 23 L 19 21 L 23 21 L 23 23 L 23 23 Z M 23 19 L 19 19 L 19 17 L 23 17 L 23 19 L 23 19 Z M 23 15 L 19 15 L 19 13 L 23 13 L 23 15 L 23 15 Z M 23 11 L 19 11 L 19 9 L 23 9 L 23 11 L 23 11 Z M 23 11" />
    <path fill="#000000" fill-rule="evenodd" d="M 25.99 5.94 C 25.97 5.7 25.88 5.47 25.71 5.29 L 20.71 0.29 C 20.52 0.1 20.26 0 20 0 C 20 0 20 0 20 0 L 3.5 0 C 3.22 0 3 0.22 3 0.5 L 3 5 L 0.5 5 C 0.22 5 0 5.22 0 5.5 L 0 14.5 C 0 14.78 0.22 15 0.5 15 L 3 15 L 3 29.5 C 3 29.78 3.22 30 3.5 30 L 25.5 30 C 25.78 30 26 29.78 26 29.5 L 26 6 C 26 5.98 25.99 5.96 25.99 5.94 L 25.99 5.94 Z M 25 29 L 4 29 L 4 15 L 9.5 15 C 9.78 15 10 14.78 10 14.5 L 10 5.5 C 10 5.22 9.78 5 9.5 5 L 4 5 L 4 1 L 19 1 L 19 6 C 19 6.55 19.45 7 20 7 L 25 7 L 25 29 L 25 29 Z M 1 6 L 9 6 L 9 14 L 1 14 L 1 6 L 1 6 Z M 20 6 L 20 1 L 25 6 L 20 6 L 20 6 Z M 20 6" />
    <path fill="#009245" fill-rule="evenodd" d="M 9 14 L 9 6 L 1 6 L 1 14 L 9 14 L 9 14 Z M 3.11 11.88 L 3.55 11.88 L 4.75 10.03 L 3.57 8.24 L 3.14 8.24 L 3.14 7.73 L 4.76 7.73 L 4.76 8.24 L 4.27 8.24 L 5.04 9.46 C 5.11 9.56 5.16 9.64 5.16 9.64 L 5.17 9.64 C 5.17 9.64 5.21 9.56 5.29 9.46 L 6.03 8.24 L 5.55 8.24 L 5.55 7.73 L 7.13 7.73 L 7.13 8.24 L 6.69 8.24 L 5.48 10.09 L 6.67 11.88 L 7.12 11.88 L 7.12 12.39 L 5.49 12.39 L 5.49 11.88 L 5.98 11.88 L 5.2 10.66 C 5.13 10.55 5.08 10.47 5.08 10.47 L 5.07 10.47 C 5.06 10.47 5.03 10.55 4.96 10.66 L 4.21 11.88 L 4.7 11.88 L 4.7 12.39 L 3.11 12.39 L 3.11 11.88 L 3.11 11.88 Z M 3.11 11.88" />
    <path fill="#ffffff" fill-rule="evenodd" d="M 4.7 12.39 L 4.7 11.88 L 4.21 11.88 L 4.96 10.66 C 5.03 10.55 5.06 10.47 5.07 10.47 L 5.08 10.47 C 5.08 10.47 5.13 10.55 5.2 10.66 L 5.98 11.88 L 5.49 11.88 L 5.49 12.39 L 7.12 12.39 L 7.12 11.88 L 6.67 11.88 L 5.48 10.09 L 6.69 8.24 L 7.13 8.24 L 7.13 7.73 L 5.55 7.73 L 5.55 8.24 L 6.03 8.24 L 5.29 9.46 C 5.21 9.56 5.17 9.64 5.17 9.64 L 5.16 9.64 C 5.16 9.64 5.11 9.56 5.04 9.46 L 4.27 8.24 L 4.76 8.24 L 4.76 7.73 L 3.14 7.73 L 3.14 8.24 L 3.57 8.24 L 4.75 10.03 L 3.55 11.88 L 3.11 11.88 L 3.11 12.39 L 4.7 12.39 L 4.7 12.39 Z M 4.7 12.39" />
    <path fill="#b3b3b3" fill-rule="evenodd" d="M 19 25 L 23 25 L 23 27 L 19 27 L 19 25 Z M 19 25" />
    <path fill="#b3b3b3" fill-rule="evenodd" d="M 19 21 L 23 21 L 23 23 L 19 23 L 19 21 Z M 19 21" />
    <path fill="#b3b3b3" fill-rule="evenodd" d="M 19 17 L 23 17 L 23 19 L 19 19 L 19 17 Z M 19 17" />
    <path fill="#b3b3b3" fill-rule="evenodd" d="M 19 13 L 23 13 L 23 15 L 19 15 L 19 13 Z M 19 13" />
    <path fill="#b3b3b3" fill-rule="evenodd" d="M 19 9 L 23 9 L 23 11 L 19 11 L 19 9 Z M 19 9" />
    <path fill="#b3b3b3" fill-rule="evenodd" d="M 12 25 L 17 25 L 17 27 L 12 27 L 12 25 Z M 12 25" />
    <path fill="#b3b3b3" fill-rule="evenodd" d="M 12 21 L 17 21 L 17 23 L 12 23 L 12 21 Z M 12 21" />
    <path fill="#b3b3b3" fill-rule="evenodd" d="M 12 17 L 17 17 L 17 19 L 12 19 L 12 17 Z M 12 17" />
    <path fill="#b3b3b3" fill-rule="evenodd" d="M 12 13 L 17 13 L 17 15 L 12 15 L 12 13 Z M 12 13" />
    <path fill="#b3b3b3" fill-rule="evenodd" d="M 12 9 L 17 9 L 17 11 L 12 11 L 12 9 Z M 12 9" />
    <path fill="#b3b3b3" fill-rule="evenodd" d="M 6 25 L 10 25 L 10 27 L 6 27 L 6 25 Z M 6 25" />
    <path fill="#b3b3b3" fill-rule="evenodd" d="M 6 21 L 10 21 L 10 23 L 6 23 L 6 21 Z M 6 21" />
    <path fill="#b3b3b3" fill-rule="evenodd" d="M 6 17 L 10 17 L 10 19 L 6 19 L 6 17 Z M 6 17" />
    <path fill="#e6e6e6" fill-rule="evenodd" d="M 20 1 L 20 6 L 25 6 L 20 1 Z M 20 1" />
</svg>