<?xml version="1.0" encoding="utf-8"?>
<!-- Generator: Avocode 2.6.0 - http://avocode.com -->
<svg height="30" width="23" xmlns:xlink="http://www.w3.org/1999/xlink" xmlns="http://www.w3.org/2000/svg" viewBox="0 0 23 30">
    <path fill="#ffffff" fill-rule="evenodd" d="M 16 6 L 16 1 L 1 1 L 1 29 L 22 29 L 22 7 L 17 7 C 16.45 7 16 6.55 16 6 L 16 6 Z M 8.68 27.1 L 8.48 27.1 C 8.37 27.1 8.3 27.04 8.29 26.93 L 8.17 25.35 C 8.16 25.14 8.17 24.86 8.17 24.86 L 8.16 24.86 C 8.16 24.86 8.06 25.17 7.99 25.35 L 7.53 26.42 C 7.5 26.52 7.43 26.56 7.33 26.56 L 7.14 26.56 C 7.03 26.56 6.96 26.52 6.93 26.42 L 6.48 25.35 C 6.4 25.17 6.3 24.86 6.3 24.86 L 6.29 24.86 C 6.29 24.86 6.3 25.14 6.29 25.35 L 6.17 26.93 C 6.16 27.04 6.1 27.1 5.98 27.1 L 5.78 27.1 C 5.66 27.1 5.59 27.03 5.6 26.91 L 5.83 24.14 C 5.84 24.02 5.9 23.96 6.02 23.96 L 6.3 23.96 C 6.4 23.96 6.47 24.01 6.51 24.11 L 7.07 25.52 C 7.14 25.7 7.23 25.98 7.23 25.98 L 7.24 25.98 C 7.24 25.98 7.32 25.7 7.39 25.52 L 7.95 24.11 C 7.99 24.01 8.06 23.96 8.17 23.96 L 8.44 23.96 C 8.56 23.96 8.62 24.02 8.63 24.14 L 8.86 26.91 C 8.87 27.03 8.8 27.1 8.68 27.1 L 8.68 27.1 Z M 12.15 26.02 L 11.51 26.02 L 11.51 26.92 C 11.51 27.04 11.45 27.1 11.33 27.1 L 11.13 27.1 C 11.01 27.1 10.94 27.04 10.94 26.92 L 10.94 24.15 C 10.94 24.03 11.01 23.96 11.13 23.96 L 12.15 23.96 C 12.74 23.96 13.15 24.37 13.15 24.98 C 13.15 25.6 12.74 26.02 12.15 26.02 L 12.15 26.02 Z M 15.86 27.16 C 15.42 27.16 15.11 26.97 14.96 26.85 C 14.86 26.78 14.85 26.69 14.92 26.6 L 15.01 26.46 C 15.08 26.36 15.16 26.35 15.26 26.42 C 15.38 26.5 15.58 26.62 15.83 26.62 C 16.16 26.62 16.39 26.42 16.39 26.15 C 16.39 25.82 16.09 25.66 15.72 25.66 L 15.66 25.66 C 15.55 25.66 15.5 25.63 15.45 25.53 L 15.43 25.5 C 15.39 25.42 15.41 25.33 15.47 25.26 L 15.96 24.69 C 16.08 24.54 16.18 24.45 16.18 24.45 L 16.18 24.44 C 16.18 24.44 16.08 24.45 15.9 24.45 L 15.15 24.45 C 15.03 24.45 14.96 24.39 14.96 24.27 L 14.96 24.15 C 14.96 24.03 15.03 23.96 15.15 23.96 L 16.69 23.96 C 16.82 23.96 16.88 24.02 16.88 24.14 L 16.88 24.19 C 16.88 24.29 16.86 24.35 16.8 24.42 L 16.11 25.21 C 16.55 25.27 16.97 25.58 16.97 26.13 C 16.97 26.66 16.57 27.16 15.86 27.16 L 15.86 27.16 Z M 17 11 L 17 11.5 L 17 18 C 17 18.05 16.99 18.09 16.97 18.14 C 16.83 19.14 15.78 19.92 14.5 19.92 C 13.12 19.92 12 19.02 12 17.92 C 12 16.81 13.12 15.92 14.5 15.92 C 15.07 15.92 15.58 16.07 16 16.33 L 16 12.07 L 9 12.94 L 9 19 C 9 19.05 8.99 19.09 8.97 19.14 C 8.83 20.14 7.78 20.92 6.5 20.92 C 5.12 20.92 4 20.02 4 18.92 C 4 17.81 5.12 16.92 6.5 16.92 C 7.07 16.92 7.58 17.07 8 17.33 L 8 12.5 L 8 12 L 8 9.5 C 8 9.25 8.19 9.04 8.44 9 L 16.44 8 C 16.59 7.98 16.72 8.03 16.83 8.13 C 16.94 8.22 17 8.36 17 8.5 L 17 11 L 17 11 Z M 17 11" />
    <path fill="#ffffff" fill-rule="evenodd" d="M 12.05 24.45 L 11.51 24.45 L 11.51 25.52 L 12.05 25.52 C 12.38 25.52 12.57 25.31 12.57 24.98 C 12.57 24.66 12.38 24.45 12.05 24.45 L 12.05 24.45 Z M 12.05 24.45" />
    <path fill="#000000" fill-rule="evenodd" d="M 22.99 5.94 C 22.97 5.7 22.88 5.47 22.71 5.29 L 17.71 0.29 C 17.52 0.1 17.26 0 17 0 C 17 0 17 0 17 0 L 0.5 0 C 0.22 0 0 0.22 0 0.5 L 0 29.5 C 0 29.78 0.22 30 0.5 30 L 22.5 30 C 22.78 30 23 29.78 23 29.5 L 23 6 C 23 5.98 22.99 5.96 22.99 5.94 L 22.99 5.94 Z M 22 29 L 1 29 L 1 1 L 16 1 L 16 6 C 16 6.55 16.45 7 17 7 L 22 7 L 22 29 L 22 29 Z M 17 6 L 17 1 L 22 6 L 17 6 L 17 6 Z M 17 6" />
    <path fill="#e6e6e6" fill-rule="evenodd" d="M 17 1 L 17 6 L 22 6 L 17 1 Z M 17 1" />
    <path fill="#000000" fill-rule="evenodd" d="M 8.44 23.96 L 8.17 23.96 C 8.06 23.96 7.99 24.01 7.95 24.11 L 7.39 25.52 C 7.32 25.7 7.24 25.98 7.24 25.98 L 7.23 25.98 C 7.23 25.98 7.14 25.7 7.07 25.52 L 6.51 24.11 C 6.47 24.01 6.4 23.96 6.3 23.96 L 6.02 23.96 C 5.9 23.96 5.84 24.02 5.83 24.14 L 5.6 26.91 C 5.59 27.03 5.66 27.1 5.78 27.1 L 5.98 27.1 C 6.1 27.1 6.16 27.04 6.17 26.93 L 6.29 25.35 C 6.3 25.14 6.29 24.86 6.29 24.86 L 6.3 24.86 C 6.3 24.86 6.4 25.17 6.48 25.35 L 6.93 26.42 C 6.96 26.52 7.03 26.56 7.14 26.56 L 7.33 26.56 C 7.43 26.56 7.5 26.52 7.53 26.42 L 7.99 25.35 C 8.06 25.17 8.16 24.86 8.16 24.86 L 8.17 24.86 C 8.17 24.86 8.16 25.14 8.17 25.35 L 8.29 26.93 C 8.3 27.04 8.37 27.1 8.48 27.1 L 8.68 27.1 C 8.8 27.1 8.87 27.03 8.86 26.91 L 8.63 24.14 C 8.62 24.02 8.56 23.96 8.44 23.96 L 8.44 23.96 Z M 8.44 23.96" />
    <path fill="#000000" fill-rule="evenodd" d="M 12.15 23.96 L 11.13 23.96 C 11.01 23.96 10.94 24.03 10.94 24.15 L 10.94 26.92 C 10.94 27.04 11.01 27.1 11.13 27.1 L 11.33 27.1 C 11.45 27.1 11.51 27.04 11.51 26.92 L 11.51 26.02 L 12.15 26.02 C 12.74 26.02 13.15 25.6 13.15 24.98 C 13.15 24.37 12.74 23.96 12.15 23.96 L 12.15 23.96 Z M 12.05 25.52 L 11.51 25.52 L 11.51 24.45 L 12.05 24.45 C 12.38 24.45 12.57 24.66 12.57 24.98 C 12.57 25.31 12.38 25.52 12.05 25.52 L 12.05 25.52 Z M 12.05 25.52" />
    <path fill="#000000" fill-rule="evenodd" d="M 16.11 25.21 L 16.8 24.42 C 16.86 24.35 16.88 24.29 16.88 24.19 L 16.88 24.14 C 16.88 24.02 16.82 23.96 16.69 23.96 L 15.15 23.96 C 15.03 23.96 14.96 24.03 14.96 24.15 L 14.96 24.27 C 14.96 24.39 15.03 24.45 15.15 24.45 L 15.9 24.45 C 16.08 24.45 16.18 24.44 16.18 24.44 L 16.18 24.45 C 16.18 24.45 16.08 24.54 15.96 24.69 L 15.47 25.26 C 15.41 25.33 15.39 25.42 15.43 25.5 L 15.45 25.53 C 15.5 25.63 15.55 25.66 15.66 25.66 L 15.72 25.66 C 16.09 25.66 16.39 25.82 16.39 26.15 C 16.39 26.42 16.16 26.62 15.83 26.62 C 15.58 26.62 15.38 26.5 15.26 26.42 C 15.16 26.35 15.08 26.36 15.01 26.46 L 14.92 26.6 C 14.85 26.69 14.86 26.78 14.96 26.85 C 15.11 26.97 15.42 27.16 15.86 27.16 C 16.57 27.16 16.97 26.66 16.97 26.13 C 16.97 25.58 16.55 25.27 16.11 25.21 L 16.11 25.21 Z M 16.11 25.21" />
    <path fill="#29abe2" fill-rule="evenodd" d="M 16.44 8 L 8.44 9 C 8.19 9.04 8 9.25 8 9.5 L 8 12 L 8 12.5 L 8 17.33 C 7.58 17.07 7.07 16.92 6.5 16.92 C 5.12 16.92 4 17.81 4 18.92 C 4 20.02 5.12 20.92 6.5 20.92 C 7.78 20.92 8.83 20.14 8.97 19.14 C 8.99 19.09 9 19.05 9 19 L 9 12.94 L 16 12.07 L 16 16.33 C 15.58 16.07 15.07 15.92 14.5 15.92 C 13.12 15.92 12 16.81 12 17.92 C 12 19.02 13.12 19.92 14.5 19.92 C 15.78 19.92 16.83 19.14 16.97 18.14 C 16.99 18.09 17 18.05 17 18 L 17 11.5 L 17 11 L 17 8.5 C 17 8.36 16.94 8.22 16.83 8.13 C 16.72 8.03 16.59 7.98 16.44 8 L 16.44 8 Z M 16.44 8" />
</svg>