<?xml version="1.0" encoding="utf-8"?>
<!-- Generator: Avocode 2.6.0 - http://avocode.com -->
<svg height="30" width="26" xmlns:xlink="http://www.w3.org/1999/xlink" xmlns="http://www.w3.org/2000/svg" viewBox="0 0 26 30">
    <path fill="#000000" fill-rule="evenodd" d="M 25.99 5.94 C 25.97 5.7 25.88 5.47 25.71 5.29 L 20.71 0.29 C 20.52 0.1 20.26 0 20 0 C 20 0 20 0 20 0 L 3.5 0 C 3.22 0 3 0.22 3 0.5 L 3 5 L 0.5 5 C 0.22 5 0 5.22 0 5.5 L 0 12.5 C 0 12.78 0.22 13 0.5 13 L 3 13 L 3 29.5 C 3 29.78 3.22 30 3.5 30 L 25.5 30 C 25.78 30 26 29.78 26 29.5 L 26 6 C 26 5.98 25.99 5.96 25.99 5.94 L 25.99 5.94 Z M 25 29 L 4 29 L 4 13 L 17.5 13 C 17.78 13 18 12.78 18 12.5 L 18 5.5 C 18 5.22 17.78 5 17.5 5 L 4 5 L 4 1 L 19 1 L 19 6 C 19 6.55 19.45 7 20 7 L 25 7 L 25 29 L 25 29 Z M 1 6 L 17 6 L 17 12 L 1 12 L 1 6 L 1 6 Z M 20 6 L 20 1 L 25 6 L 20 6 L 20 6 Z M 20 6" />
</svg>