<?xml version="1.0" encoding="utf-8"?>
<!-- Generator: Avocode 2.6.0 - http://avocode.com -->
<svg height="30" width="23" xmlns:xlink="http://www.w3.org/1999/xlink" xmlns="http://www.w3.org/2000/svg" viewBox="0 0 23 30">
    <path fill="#ffffff" fill-rule="evenodd" d="M 16 6 L 16 1 L 1 1 L 1 21 L 22 21 L 22 7 L 17 7 C 16.45 7 16 6.55 16 6 L 16 6 Z M 8.03 17.08 C 8.03 17.47 7.83 17.67 7.46 17.67 L 6.81 17.67 C 6.43 17.67 6.24 17.47 6.24 17.08 L 6.24 8.31 C 6.24 7.93 6.43 7.72 6.81 7.72 L 7.46 7.72 C 7.83 7.72 8.03 7.93 8.03 8.31 L 8.03 17.08 L 8.03 17.08 Z M 13.06 17.67 L 10.65 17.67 C 10.33 17.67 10.16 17.5 10.16 17.16 L 10.16 9.65 C 10.16 9.33 10.33 9.15 10.65 9.15 L 13.06 9.15 C 15.69 9.15 17.4 10.71 17.4 13.4 C 17.4 16.08 15.69 17.67 13.06 17.67 L 13.06 17.67 Z M 13.06 17.67" />
    <path fill="#ffffff" fill-rule="evenodd" d="M 12.98 10.48 L 11.69 10.48 L 11.69 16.34 L 12.98 16.34 C 14.71 16.34 15.81 15.32 15.81 13.4 C 15.81 11.5 14.68 10.48 12.98 10.48 L 12.98 10.48 Z M 12.98 10.48" />
    <path fill="#000000" fill-rule="evenodd" d="M 22.99 5.94 C 22.97 5.7 22.88 5.47 22.71 5.29 L 17.71 0.29 C 17.52 0.11 17.27 0.01 17.02 0 C 17.01 0 17.01 0 17 0 L 0.5 0 C 0.22 0 0 0.22 0 0.5 L 0 21.5 L 0 29.5 C 0 29.78 0.22 30 0.5 30 L 22.5 30 C 22.78 30 23 29.78 23 29.5 L 23 21.5 L 23 6 C 23 5.98 22.99 5.96 22.99 5.94 L 22.99 5.94 Z M 22 21 L 1 21 L 1 1 L 16 1 L 16 6 C 16 6.55 16.45 7 17 7 L 22 7 L 22 21 L 22 21 Z M 22 29 L 1 29 L 1 22 L 22 22 L 22 29 L 22 29 Z M 17 6 L 17 1 L 22 6 L 17 6 L 17 6 Z M 17 6" />
    <path fill="#93278f" fill-rule="evenodd" d="M 1 29 L 22 29 L 22 22 L 1 22 L 1 29 L 1 29 Z M 16.62 24.15 C 16.62 24.03 16.68 23.96 16.8 23.96 L 17.69 23.96 C 18.66 23.96 19.29 24.54 19.29 25.53 C 19.29 26.52 18.66 27.1 17.69 27.1 L 16.8 27.1 C 16.68 27.1 16.62 27.04 16.62 26.92 L 16.62 24.15 L 16.62 24.15 Z M 11.93 24.15 C 11.93 24.03 11.99 23.96 12.11 23.96 L 13 23.96 C 13.97 23.96 14.6 24.54 14.6 25.53 C 14.6 26.52 13.97 27.1 13 27.1 L 12.11 27.1 C 11.99 27.1 11.93 27.04 11.93 26.92 L 11.93 24.15 L 11.93 24.15 Z M 7.18 24.15 C 7.18 24.03 7.24 23.96 7.36 23.96 L 7.6 23.96 C 7.71 23.96 7.77 24 7.82 24.09 L 8.94 25.78 C 9.06 25.96 9.2 26.26 9.2 26.26 L 9.21 26.26 C 9.21 26.26 9.17 25.96 9.17 25.78 L 9.17 24.15 C 9.17 24.03 9.24 23.96 9.36 23.96 L 9.56 23.96 C 9.68 23.96 9.75 24.03 9.75 24.15 L 9.75 26.92 C 9.75 27.04 9.68 27.1 9.56 27.1 L 9.32 27.1 C 9.22 27.1 9.15 27.07 9.1 26.98 L 7.98 25.29 C 7.87 25.11 7.72 24.81 7.72 24.81 L 7.71 24.81 C 7.71 24.81 7.75 25.11 7.75 25.29 L 7.75 26.92 C 7.75 27.04 7.68 27.1 7.56 27.1 L 7.36 27.1 C 7.24 27.1 7.18 27.04 7.18 26.92 L 7.18 24.15 L 7.18 24.15 Z M 4.43 24.15 C 4.43 24.03 4.49 23.96 4.61 23.96 L 4.81 23.96 C 4.93 23.96 4.99 24.03 4.99 24.15 L 4.99 26.92 C 4.99 27.04 4.93 27.1 4.81 27.1 L 4.61 27.1 C 4.49 27.1 4.43 27.04 4.43 26.92 L 4.43 24.15 L 4.43 24.15 Z M 4.43 24.15" />
    <path fill="#93278f" fill-rule="evenodd" d="M 18.7 25.53 C 18.7 24.83 18.28 24.45 17.66 24.45 L 17.18 24.45 L 17.18 26.61 L 17.66 26.61 C 18.29 26.61 18.7 26.24 18.7 25.53 L 18.7 25.53 Z M 18.7 25.53" />
    <path fill="#93278f" fill-rule="evenodd" d="M 14.02 25.53 C 14.02 24.83 13.6 24.45 12.97 24.45 L 12.5 24.45 L 12.5 26.61 L 12.97 26.61 C 13.61 26.61 14.02 26.24 14.02 25.53 L 14.02 25.53 Z M 14.02 25.53" />
    <path fill="#ffffff" fill-rule="evenodd" d="M 4.61 27.1 L 4.81 27.1 C 4.93 27.1 4.99 27.04 4.99 26.92 L 4.99 24.15 C 4.99 24.03 4.93 23.96 4.81 23.96 L 4.61 23.96 C 4.49 23.96 4.43 24.03 4.43 24.15 L 4.43 26.92 C 4.43 27.04 4.49 27.1 4.61 27.1 L 4.61 27.1 Z M 4.61 27.1" />
    <path fill="#ffffff" fill-rule="evenodd" d="M 7.36 27.1 L 7.56 27.1 C 7.68 27.1 7.75 27.04 7.75 26.92 L 7.75 25.29 C 7.75 25.11 7.71 24.81 7.71 24.81 L 7.72 24.81 C 7.72 24.81 7.87 25.11 7.98 25.29 L 9.1 26.98 C 9.15 27.07 9.22 27.1 9.32 27.1 L 9.56 27.1 C 9.68 27.1 9.75 27.04 9.75 26.92 L 9.75 24.15 C 9.75 24.03 9.68 23.96 9.56 23.96 L 9.36 23.96 C 9.24 23.96 9.17 24.03 9.17 24.15 L 9.17 25.78 C 9.17 25.96 9.21 26.26 9.21 26.26 L 9.2 26.26 C 9.2 26.26 9.06 25.96 8.94 25.78 L 7.82 24.09 C 7.77 24 7.71 23.96 7.6 23.96 L 7.36 23.96 C 7.24 23.96 7.18 24.03 7.18 24.15 L 7.18 26.92 C 7.18 27.04 7.24 27.1 7.36 27.1 L 7.36 27.1 Z M 7.36 27.1" />
    <path fill="#ffffff" fill-rule="evenodd" d="M 12.11 27.1 L 13 27.1 C 13.97 27.1 14.6 26.52 14.6 25.53 C 14.6 24.54 13.97 23.96 13 23.96 L 12.11 23.96 C 11.99 23.96 11.93 24.03 11.93 24.15 L 11.93 26.92 C 11.93 27.04 11.99 27.1 12.11 27.1 L 12.11 27.1 Z M 12.5 24.45 L 12.97 24.45 C 13.6 24.45 14.02 24.83 14.02 25.53 C 14.02 26.24 13.61 26.61 12.97 26.61 L 12.5 26.61 L 12.5 24.45 L 12.5 24.45 Z M 12.5 24.45" />
    <path fill="#ffffff" fill-rule="evenodd" d="M 16.8 27.1 L 17.69 27.1 C 18.66 27.1 19.29 26.52 19.29 25.53 C 19.29 24.54 18.66 23.96 17.69 23.96 L 16.8 23.96 C 16.68 23.96 16.62 24.03 16.62 24.15 L 16.62 26.92 C 16.62 27.04 16.68 27.1 16.8 27.1 L 16.8 27.1 Z M 17.18 24.45 L 17.66 24.45 C 18.28 24.45 18.7 24.83 18.7 25.53 C 18.7 26.24 18.29 26.61 17.66 26.61 L 17.18 26.61 L 17.18 24.45 L 17.18 24.45 Z M 17.18 24.45" />
    <path fill="#93278f" fill-rule="evenodd" d="M 7.46 7.72 L 6.81 7.72 C 6.43 7.72 6.24 7.93 6.24 8.31 L 6.24 17.08 C 6.24 17.47 6.43 17.67 6.81 17.67 L 7.46 17.67 C 7.83 17.67 8.03 17.47 8.03 17.08 L 8.03 8.31 C 8.03 7.93 7.83 7.72 7.46 7.72 L 7.46 7.72 Z M 7.46 7.72" />
    <path fill="#93278f" fill-rule="evenodd" d="M 13.06 9.15 L 10.65 9.15 C 10.33 9.15 10.16 9.33 10.16 9.65 L 10.16 17.16 C 10.16 17.5 10.33 17.67 10.65 17.67 L 13.06 17.67 C 15.69 17.67 17.4 16.08 17.4 13.4 C 17.4 10.71 15.69 9.15 13.06 9.15 L 13.06 9.15 Z M 12.98 16.34 L 11.69 16.34 L 11.69 10.48 L 12.98 10.48 C 14.68 10.48 15.81 11.5 15.81 13.4 C 15.81 15.32 14.71 16.34 12.98 16.34 L 12.98 16.34 Z M 12.98 16.34" />
    <path fill="#e6e6e6" fill-rule="evenodd" d="M 17 1 L 17 6 L 22 6 L 17 1 Z M 17 1" />
</svg>