<?xml version="1.0" encoding="utf-8"?>
<!-- Generator: Avocode 2.6.0 - http://avocode.com -->
<svg height="30" width="23" xmlns:xlink="http://www.w3.org/1999/xlink" xmlns="http://www.w3.org/2000/svg" viewBox="0 0 23 30">
    <path fill="#000000" fill-rule="evenodd" d="M 22.99 5.94 C 22.97 5.7 22.88 5.47 22.71 5.29 L 17.71 0.29 C 17.52 0.11 17.27 0.01 17.02 0 C 17.01 0 17.01 0 17 0 L 0.5 0 C 0.22 0 0 0.22 0 0.5 L 0 21.5 L 0 29.5 C 0 29.78 0.22 30 0.5 30 L 22.5 30 C 22.78 30 23 29.78 23 29.5 L 23 21.5 L 23 6 C 23 5.98 22.99 5.96 22.99 5.94 L 22.99 5.94 Z M 22 21 L 1 21 L 1 1 L 16 1 L 16 6 C 16 6.55 16.45 7 17 7 L 22 7 L 22 21 L 22 21 Z M 22 29 L 1 29 L 1 22 L 22 22 L 22 29 L 22 29 Z M 17 6 L 17 1 L 22 6 L 17 6 L 17 6 Z M 17 6" />
    <path fill="#e62f32" fill-rule="evenodd" d="M 12.79 7.72 L 8.23 7.72 C 7.86 7.72 7.66 7.93 7.66 8.31 L 7.66 17.08 C 7.66 17.47 7.86 17.67 8.23 17.67 L 8.88 17.67 C 9.26 17.67 9.45 17.47 9.45 17.08 L 9.45 13.65 L 12.17 13.65 C 12.55 13.65 12.76 13.44 12.76 13.06 L 12.76 12.67 C 12.76 12.29 12.55 12.09 12.17 12.09 L 9.45 12.09 L 9.45 9.28 L 12.79 9.28 C 13.17 9.28 13.38 9.08 13.38 8.7 L 13.38 8.31 C 13.38 7.93 13.17 7.72 12.79 7.72 L 12.79 7.72 Z M 12.79 7.72" />
    <path fill="#e62f32" fill-rule="evenodd" d="M 1 29 L 22 29 L 22 22 L 1 22 L 1 29 L 1 29 Z M 14.67 24.11 C 14.7 24.01 14.77 23.96 14.88 23.96 L 15.16 23.96 C 15.26 23.96 15.34 24.01 15.37 24.11 L 16.35 26.89 C 16.39 27.02 16.34 27.1 16.2 27.1 L 16 27.1 C 15.89 27.1 15.82 27.05 15.79 26.95 L 15.57 26.3 L 14.46 26.3 L 14.25 26.95 C 14.22 27.05 14.15 27.1 14.04 27.1 L 13.84 27.1 C 13.7 27.1 13.64 27.02 13.69 26.89 L 14.67 24.11 L 14.67 24.11 Z M 10.21 24.15 C 10.21 24.03 10.27 23.96 10.39 23.96 L 10.59 23.96 C 10.71 23.96 10.78 24.03 10.78 24.15 L 10.78 26.61 L 11.95 26.61 C 12.07 26.61 12.13 26.67 12.13 26.79 L 12.13 26.92 C 12.13 27.04 12.07 27.1 11.95 27.1 L 10.39 27.1 C 10.27 27.1 10.21 27.04 10.21 26.92 L 10.21 24.15 L 10.21 24.15 Z M 6.48 24.15 C 6.48 24.03 6.54 23.96 6.66 23.96 L 8.1 23.96 C 8.22 23.96 8.29 24.03 8.29 24.15 L 8.29 24.27 C 8.29 24.39 8.22 24.45 8.1 24.45 L 7.05 24.45 L 7.05 25.34 L 7.91 25.34 C 8.02 25.34 8.09 25.4 8.09 25.52 L 8.09 25.65 C 8.09 25.77 8.02 25.83 7.91 25.83 L 7.05 25.83 L 7.05 26.92 C 7.05 27.04 6.98 27.1 6.87 27.1 L 6.66 27.1 C 6.54 27.1 6.48 27.04 6.48 26.92 L 6.48 24.15 L 6.48 24.15 Z M 6.48 24.15" />
</svg>