<?xml version="1.0" standalone="no"?>
<!DOCTYPE svg PUBLIC "-//W3C//DTD SVG 1.1//EN" "http://www.w3.org/Graphics/SVG/1.1/DTD/svg11.dtd" >
<svg xmlns="http://www.w3.org/2000/svg">
<metadata>Generated by IcoMoon</metadata>
<defs>
<font id="icomoon" horiz-adv-x="1024">
<font-face units-per-em="1024" ascent="960" descent="-64" />
<missing-glyph horiz-adv-x="1024" />
<glyph unicode="&#x20;" horiz-adv-x="512" d="" />
<glyph unicode="&#xe900;" glyph-name="megaphone" d="M758.857 923.429c-56.32 0-100.571-38.766-132.389-98.377l-0.549 0.366c-46.080-90.331-114.834-148.846-189.989-148.846h-253.074c-61.44 0-109.714-60.343-109.714-137.143 0-76.983 48.274-137.143 109.714-137.143 30.171-0.183 54.674-24.503 54.674-54.857v-246.857c0-30.354 24.686-54.857 54.857-54.857h109.714c30.354 0 54.857 24.503 54.857 54.857v27.429c0 27.429-27.429 39.68-27.429 54.857v192c0 0.549 0.549 1.097 0.549 1.646 0.183 4.023 1.28 7.68 3.109 10.971 0.366 0.914 0.914 1.463 1.646 2.377 2.194 3.291 4.937 5.851 8.229 8.046 0.183 0 0.183 0.183 0.366 0.366 0.183 0 0.183 0 0.366 0 2.194 1.28 4.754 1.646 7.314 2.194 69.12-7.314 131.84-63.086 174.811-147.383l0.731 0.366c31.817-59.429 75.886-98.011 132.206-98.011 125.989 0 192 193.097 192 384s-66.011 384-192 384v0zM621.714 539.429c0 28.526 1.646 55.954 4.571 82.286h77.714c30.354 0 54.857-36.937 54.857-82.286 0-45.531-24.503-82.286-54.857-82.286h-77.714c-2.926 26.331-4.571 53.76-4.571 82.286v0zM128 539.429c0 45.349 24.503 82.286 54.857 82.286h192.366c-17.006-19.931-27.794-49.006-27.794-82.286s10.789-62.354 27.794-82.286h-192.366c-30.354 0-54.857 36.754-54.857 82.286v0zM402.103 100.571h-109.714v246.857c0 19.931-5.303 38.766-14.629 54.857h19.017v-0.366h82.651c-2.926-8.411-4.754-17.554-4.754-27.063v-192c0-26.331 14.811-44.069 23.589-54.491 1.28-1.463 2.56-2.926 3.84-4.571v-23.223zM435.931 456.777h-6.217v0.366c-30.354 0-54.857 36.754-54.857 82.286 0 45.349 24.503 82.286 54.857 82.286h6.217c51.749 0 100.206 20.297 142.811 55.406-7.863-44.251-11.886-91.063-11.886-137.691 0-46.811 4.023-93.806 11.886-138.057-42.606 35.109-91.063 55.406-142.811 55.406v0zM758.857 210.286c-55.406 0-102.766 78.811-124.526 192h69.669c61.44 0 109.714 60.16 109.714 137.143 0 76.8-48.274 137.143-109.714 137.143h-69.669c21.76 113.189 69.12 192 124.526 192 75.703 0 137.143-147.383 137.143-329.143s-61.44-329.143-137.143-329.143v0z" />
<glyph unicode="&#xe901;" glyph-name="warning" horiz-adv-x="1229" d="M34.133-64h1160.533l-580.267 1024-580.267-1024zM682.667 72.533h-136.533v136.533h136.533v-136.533zM682.667 277.333h-136.533v273.067h136.533v-273.067z" />
<glyph unicode="&#xe902;" glyph-name="calendar" d="M938.803 864.154h-138.854v63.898c0 17.613-14.336 31.949-31.949 31.949s-31.949-14.336-31.949-31.949v-63.898h-192.102v63.898c0 17.613-14.336 31.949-31.949 31.949s-31.949-14.336-31.949-31.949v-63.898h-192.102v63.898c0 17.613-14.336 31.949-31.949 31.949s-31.949-14.336-31.949-31.949v-63.898h-138.854c-47.104 0-85.197-38.502-85.197-85.606v-757.35c0-47.104 38.093-85.197 85.197-85.197h853.606c47.104 0 85.197 38.093 85.197 85.197v757.35c0 47.104-38.093 85.606-85.197 85.606v0zM960.102 21.197c0-11.469-9.83-21.299-21.299-21.299h-853.606c-11.469 0-21.299 9.83-21.299 21.299v757.35c0 11.878 9.83 21.299 21.299 21.299h138.854v-63.898c0-17.613 14.336-31.949 31.949-31.949s31.949 14.336 31.949 31.949v63.898h192.102v-63.898c0-17.613 14.336-31.949 31.949-31.949s31.949 14.336 31.949 31.949v63.898h192.102v-63.898c0-17.613 14.336-31.949 31.949-31.949s31.949 14.336 31.949 31.949v63.898h138.854c11.469 0 21.299-9.421 21.299-21.299v-757.35z" />
</font></defs></svg>